[{
    "_id": "a-10",
    "_parentId": "co-50",
    "_type": "article",
    "_classes": "",
    "title": "",
    "displayTitle": "",
    "body": ""
  },
  {
    "_id": "a-20",
    "_parentId": "co-100",
    "_type": "article",
    "_classes": "",
    "title": "",
    "displayTitle": "",
    "body": ""
  },
  {
    "_id": "a-30",
    "_parentId": "co-150",
    "_type": "article",
    "_classes": "",
    "title": "",
    "displayTitle": "",
    "body": ""
  },
	{
		"_id": "a-40",
		"_parentId": "co-200",
		"_type": "article",
		"_classes": "",
		"title": "",
		"displayTitle": "",
		"body": ""
	},
	{
		"_id": "a-50",
		"_parentId": "co-250",
		"_type": "article",
		"_classes": "",
		"title": "",
		"displayTitle": "",
		"body": ""
	}
]
